<?xml version="1.0" encoding="UTF-8" standalone="no"?>
<!DOCTYPE svg PUBLIC "-//W3C//DTD SVG 1.1//EN"
 "http://www.w3.org/Graphics/SVG/1.1/DTD/svg11.dtd">
<!-- Generated by graphviz version 2.40.1 (20161225.0304)
 -->
<!-- Title: %3 Pages: 1 -->
<svg width="864pt" height="767pt"
 viewBox="0.00 0.00 864.00 767.50" xmlns="http://www.w3.org/2000/svg" xmlns:xlink="http://www.w3.org/1999/xlink">
<g id="graph0" class="graph" transform="scale(.7569 .7569) rotate(0) translate(4 1010)">
<title>%3</title>
<polygon fill="#ffffff" stroke="transparent" points="-4,4 -4,-1010 1137.5,-1010 1137.5,4 -4,4"/>
<!-- 140204153145496 -->
<g id="node1" class="node">
<title>140204153145496</title>
<polygon fill="#caff70" stroke="#000000" points="1082,-21 977,-21 977,0 1082,0 1082,-21"/>
<text text-anchor="middle" x="1029.5" y="-7.4" font-family="Times,serif" font-size="12.00" fill="#000000">SigmoidBackward</text>
</g>
<!-- 140204153145608 -->
<g id="node2" class="node">
<title>140204153145608</title>
<polygon fill="#d3d3d3" stroke="#000000" points="1105.5,-78 953.5,-78 953.5,-57 1105.5,-57 1105.5,-78"/>
<text text-anchor="middle" x="1029.5" y="-64.4" font-family="Times,serif" font-size="12.00" fill="#000000">NativeBatchNormBackward</text>
</g>
<!-- 140204153145608&#45;&gt;140204153145496 -->
<g id="edge1" class="edge">
<title>140204153145608&#45;&gt;140204153145496</title>
<path fill="none" stroke="#000000" d="M1029.5,-56.7787C1029.5,-49.6134 1029.5,-39.9517 1029.5,-31.3097"/>
<polygon fill="#000000" stroke="#000000" points="1033.0001,-31.1732 1029.5,-21.1732 1026.0001,-31.1732 1033.0001,-31.1732"/>
</g>
<!-- 140204153145160 -->
<g id="node3" class="node">
<title>140204153145160</title>
<polygon fill="#d3d3d3" stroke="#000000" points="979,-141.5 798,-141.5 798,-120.5 979,-120.5 979,-141.5"/>
<text text-anchor="middle" x="888.5" y="-127.9" font-family="Times,serif" font-size="12.00" fill="#000000">ThnnConvTranspose2DBackward</text>
</g>
<!-- 140204153145160&#45;&gt;140204153145608 -->
<g id="edge2" class="edge">
<title>140204153145160&#45;&gt;140204153145608</title>
<path fill="none" stroke="#000000" d="M912.1002,-120.3715C935.1796,-109.9776 970.5313,-94.0568 996.4126,-82.4011"/>
<polygon fill="#000000" stroke="#000000" points="998.142,-85.4608 1005.8228,-78.1631 995.2675,-79.0782 998.142,-85.4608"/>
</g>
<!-- 140204153145272 -->
<g id="node4" class="node">
<title>140204153145272</title>
<polygon fill="#d3d3d3" stroke="#000000" points="889,-211.5 770,-211.5 770,-190.5 889,-190.5 889,-211.5"/>
<text text-anchor="middle" x="829.5" y="-197.9" font-family="Times,serif" font-size="12.00" fill="#000000">ThresholdBackward1</text>
</g>
<!-- 140204153145272&#45;&gt;140204153145160 -->
<g id="edge3" class="edge">
<title>140204153145272&#45;&gt;140204153145160</title>
<path fill="none" stroke="#000000" d="M838.4608,-190.3685C847.5576,-179.5758 861.8271,-162.6458 872.8042,-149.6221"/>
<polygon fill="#000000" stroke="#000000" points="875.6863,-151.6335 879.4548,-141.7315 870.3339,-147.1222 875.6863,-151.6335"/>
</g>
<!-- 140204153145776 -->
<g id="node5" class="node">
<title>140204153145776</title>
<polygon fill="#d3d3d3" stroke="#000000" points="905.5,-275 753.5,-275 753.5,-254 905.5,-254 905.5,-275"/>
<text text-anchor="middle" x="829.5" y="-261.4" font-family="Times,serif" font-size="12.00" fill="#000000">NativeBatchNormBackward</text>
</g>
<!-- 140204153145776&#45;&gt;140204153145272 -->
<g id="edge4" class="edge">
<title>140204153145776&#45;&gt;140204153145272</title>
<path fill="none" stroke="#000000" d="M829.5,-253.7281C829.5,-245.0091 829.5,-232.4699 829.5,-221.8068"/>
<polygon fill="#000000" stroke="#000000" points="833.0001,-221.6128 829.5,-211.6128 826.0001,-221.6129 833.0001,-221.6128"/>
</g>
<!-- 140204153145888 -->
<g id="node6" class="node">
<title>140204153145888</title>
<polygon fill="#d3d3d3" stroke="#000000" points="779,-338.5 598,-338.5 598,-317.5 779,-317.5 779,-338.5"/>
<text text-anchor="middle" x="688.5" y="-324.9" font-family="Times,serif" font-size="12.00" fill="#000000">ThnnConvTranspose2DBackward</text>
</g>
<!-- 140204153145888&#45;&gt;140204153145776 -->
<g id="edge5" class="edge">
<title>140204153145888&#45;&gt;140204153145776</title>
<path fill="none" stroke="#000000" d="M712.1002,-317.3715C735.1796,-306.9776 770.5313,-291.0568 796.4126,-279.4011"/>
<polygon fill="#000000" stroke="#000000" points="798.142,-282.4608 805.8228,-275.1631 795.2675,-276.0782 798.142,-282.4608"/>
</g>
<!-- 140204153146112 -->
<g id="node7" class="node">
<title>140204153146112</title>
<polygon fill="#d3d3d3" stroke="#000000" points="688,-408.5 569,-408.5 569,-387.5 688,-387.5 688,-408.5"/>
<text text-anchor="middle" x="628.5" y="-394.9" font-family="Times,serif" font-size="12.00" fill="#000000">ThresholdBackward1</text>
</g>
<!-- 140204153146112&#45;&gt;140204153145888 -->
<g id="edge6" class="edge">
<title>140204153146112&#45;&gt;140204153145888</title>
<path fill="none" stroke="#000000" d="M637.6127,-387.3685C646.8636,-376.5758 661.375,-359.6458 672.5382,-346.6221"/>
<polygon fill="#000000" stroke="#000000" points="675.451,-348.6019 679.3015,-338.7315 670.1362,-344.0464 675.451,-348.6019"/>
</g>
<!-- 140204153146280 -->
<g id="node8" class="node">
<title>140204153146280</title>
<polygon fill="#d3d3d3" stroke="#000000" points="704.5,-472 552.5,-472 552.5,-451 704.5,-451 704.5,-472"/>
<text text-anchor="middle" x="628.5" y="-458.4" font-family="Times,serif" font-size="12.00" fill="#000000">NativeBatchNormBackward</text>
</g>
<!-- 140204153146280&#45;&gt;140204153146112 -->
<g id="edge7" class="edge">
<title>140204153146280&#45;&gt;140204153146112</title>
<path fill="none" stroke="#000000" d="M628.5,-450.7281C628.5,-442.0091 628.5,-429.4699 628.5,-418.8068"/>
<polygon fill="#000000" stroke="#000000" points="632.0001,-418.6128 628.5,-408.6128 625.0001,-418.6129 632.0001,-418.6128"/>
</g>
<!-- 140204153146392 -->
<g id="node9" class="node">
<title>140204153146392</title>
<polygon fill="#d3d3d3" stroke="#000000" points="581,-535.5 400,-535.5 400,-514.5 581,-514.5 581,-535.5"/>
<text text-anchor="middle" x="490.5" y="-521.9" font-family="Times,serif" font-size="12.00" fill="#000000">ThnnConvTranspose2DBackward</text>
</g>
<!-- 140204153146392&#45;&gt;140204153146280 -->
<g id="edge8" class="edge">
<title>140204153146392&#45;&gt;140204153146280</title>
<path fill="none" stroke="#000000" d="M513.5981,-514.3715C536.1864,-503.9776 570.786,-488.0568 596.1166,-476.4011"/>
<polygon fill="#000000" stroke="#000000" points="597.7052,-479.5229 605.3265,-472.1631 594.7791,-473.1638 597.7052,-479.5229"/>
</g>
<!-- 140204153146616 -->
<g id="node10" class="node">
<title>140204153146616</title>
<polygon fill="#d3d3d3" stroke="#000000" points="488,-605.5 369,-605.5 369,-584.5 488,-584.5 488,-605.5"/>
<text text-anchor="middle" x="428.5" y="-591.9" font-family="Times,serif" font-size="12.00" fill="#000000">ThresholdBackward1</text>
</g>
<!-- 140204153146616&#45;&gt;140204153146392 -->
<g id="edge9" class="edge">
<title>140204153146616&#45;&gt;140204153146392</title>
<path fill="none" stroke="#000000" d="M437.9165,-584.3685C447.5668,-573.473 462.7569,-556.3228 474.3347,-543.2511"/>
<polygon fill="#000000" stroke="#000000" points="476.9846,-545.5381 480.9949,-535.7315 471.7445,-540.8968 476.9846,-545.5381"/>
</g>
<!-- 140204153146784 -->
<g id="node11" class="node">
<title>140204153146784</title>
<polygon fill="#d3d3d3" stroke="#000000" points="504.5,-669 352.5,-669 352.5,-648 504.5,-648 504.5,-669"/>
<text text-anchor="middle" x="428.5" y="-655.4" font-family="Times,serif" font-size="12.00" fill="#000000">NativeBatchNormBackward</text>
</g>
<!-- 140204153146784&#45;&gt;140204153146616 -->
<g id="edge10" class="edge">
<title>140204153146784&#45;&gt;140204153146616</title>
<path fill="none" stroke="#000000" d="M428.5,-647.7281C428.5,-639.0091 428.5,-626.4699 428.5,-615.8068"/>
<polygon fill="#000000" stroke="#000000" points="432.0001,-615.6128 428.5,-605.6128 425.0001,-615.6129 432.0001,-615.6128"/>
</g>
<!-- 140204153146896 -->
<g id="node12" class="node">
<title>140204153146896</title>
<polygon fill="#d3d3d3" stroke="#000000" points="381,-732.5 200,-732.5 200,-711.5 381,-711.5 381,-732.5"/>
<text text-anchor="middle" x="290.5" y="-718.9" font-family="Times,serif" font-size="12.00" fill="#000000">ThnnConvTranspose2DBackward</text>
</g>
<!-- 140204153146896&#45;&gt;140204153146784 -->
<g id="edge11" class="edge">
<title>140204153146896&#45;&gt;140204153146784</title>
<path fill="none" stroke="#000000" d="M313.5981,-711.3715C336.1864,-700.9776 370.786,-685.0568 396.1166,-673.4011"/>
<polygon fill="#000000" stroke="#000000" points="397.7052,-676.5229 405.3265,-669.1631 394.7791,-670.1638 397.7052,-676.5229"/>
</g>
<!-- 140204153147120 -->
<g id="node13" class="node">
<title>140204153147120</title>
<polygon fill="#d3d3d3" stroke="#000000" points="288,-802.5 169,-802.5 169,-781.5 288,-781.5 288,-802.5"/>
<text text-anchor="middle" x="228.5" y="-788.9" font-family="Times,serif" font-size="12.00" fill="#000000">ThresholdBackward1</text>
</g>
<!-- 140204153147120&#45;&gt;140204153146896 -->
<g id="edge12" class="edge">
<title>140204153147120&#45;&gt;140204153146896</title>
<path fill="none" stroke="#000000" d="M237.9165,-781.3685C247.5668,-770.473 262.7569,-753.3228 274.3347,-740.2511"/>
<polygon fill="#000000" stroke="#000000" points="276.9846,-742.5381 280.9949,-732.7315 271.7445,-737.8968 276.9846,-742.5381"/>
</g>
<!-- 140204153147288 -->
<g id="node14" class="node">
<title>140204153147288</title>
<polygon fill="#d3d3d3" stroke="#000000" points="304.5,-866 152.5,-866 152.5,-845 304.5,-845 304.5,-866"/>
<text text-anchor="middle" x="228.5" y="-852.4" font-family="Times,serif" font-size="12.00" fill="#000000">NativeBatchNormBackward</text>
</g>
<!-- 140204153147288&#45;&gt;140204153147120 -->
<g id="edge13" class="edge">
<title>140204153147288&#45;&gt;140204153147120</title>
<path fill="none" stroke="#000000" d="M228.5,-844.7281C228.5,-836.0091 228.5,-823.4699 228.5,-812.8068"/>
<polygon fill="#000000" stroke="#000000" points="232.0001,-812.6128 228.5,-802.6128 225.0001,-812.6129 232.0001,-812.6128"/>
</g>
<!-- 140204153176192 -->
<g id="node15" class="node">
<title>140204153176192</title>
<polygon fill="#d3d3d3" stroke="#000000" points="181,-929.5 0,-929.5 0,-908.5 181,-908.5 181,-929.5"/>
<text text-anchor="middle" x="90.5" y="-915.9" font-family="Times,serif" font-size="12.00" fill="#000000">ThnnConvTranspose2DBackward</text>
</g>
<!-- 140204153176192&#45;&gt;140204153147288 -->
<g id="edge14" class="edge">
<title>140204153176192&#45;&gt;140204153147288</title>
<path fill="none" stroke="#000000" d="M113.5981,-908.3715C136.1864,-897.9776 170.786,-882.0568 196.1166,-870.4011"/>
<polygon fill="#000000" stroke="#000000" points="197.7052,-873.5229 205.3265,-866.1631 194.7791,-867.1638 197.7052,-873.5229"/>
</g>
<!-- 140204153176416 -->
<g id="node16" class="node">
<title>140204153176416</title>
<polygon fill="#add8e6" stroke="#000000" points="140,-1006 41,-1006 41,-972 140,-972 140,-1006"/>
<text text-anchor="middle" x="90.5" y="-992.4" font-family="Times,serif" font-size="12.00" fill="#000000">0.weight</text>
<text text-anchor="middle" x="90.5" y="-979.4" font-family="Times,serif" font-size="12.00" fill="#000000"> (256, 224, 8, 16)</text>
</g>
<!-- 140204153176416&#45;&gt;140204153176192 -->
<g id="edge15" class="edge">
<title>140204153176416&#45;&gt;140204153176192</title>
<path fill="none" stroke="#000000" d="M90.5,-971.6966C90.5,-962.0634 90.5,-950.003 90.5,-939.8518"/>
<polygon fill="#000000" stroke="#000000" points="94.0001,-939.7912 90.5,-929.7913 87.0001,-939.7913 94.0001,-939.7912"/>
</g>
<!-- 140204153176248 -->
<g id="node17" class="node">
<title>140204153176248</title>
<polygon fill="#add8e6" stroke="#000000" points="257.5,-936 199.5,-936 199.5,-902 257.5,-902 257.5,-936"/>
<text text-anchor="middle" x="228.5" y="-922.4" font-family="Times,serif" font-size="12.00" fill="#000000">1.weight</text>
<text text-anchor="middle" x="228.5" y="-909.4" font-family="Times,serif" font-size="12.00" fill="#000000"> (224)</text>
</g>
<!-- 140204153176248&#45;&gt;140204153147288 -->
<g id="edge16" class="edge">
<title>140204153176248&#45;&gt;140204153147288</title>
<path fill="none" stroke="#000000" d="M228.5,-901.9832C228.5,-894.1157 228.5,-884.6973 228.5,-876.4019"/>
<polygon fill="#000000" stroke="#000000" points="232.0001,-876.3686 228.5,-866.3687 225.0001,-876.3687 232.0001,-876.3686"/>
</g>
<!-- 140204153176304 -->
<g id="node18" class="node">
<title>140204153176304</title>
<polygon fill="#add8e6" stroke="#000000" points="329.5,-936 275.5,-936 275.5,-902 329.5,-902 329.5,-936"/>
<text text-anchor="middle" x="302.5" y="-922.4" font-family="Times,serif" font-size="12.00" fill="#000000">1.bias</text>
<text text-anchor="middle" x="302.5" y="-909.4" font-family="Times,serif" font-size="12.00" fill="#000000"> (224)</text>
</g>
<!-- 140204153176304&#45;&gt;140204153147288 -->
<g id="edge17" class="edge">
<title>140204153176304&#45;&gt;140204153147288</title>
<path fill="none" stroke="#000000" d="M282.6694,-901.9832C272.2647,-893.0549 259.5326,-882.1294 249.0269,-873.1143"/>
<polygon fill="#000000" stroke="#000000" points="251.0341,-870.2247 241.1659,-866.3687 246.4756,-875.537 251.0341,-870.2247"/>
</g>
<!-- 140204153147176 -->
<g id="node19" class="node">
<title>140204153147176</title>
<polygon fill="#add8e6" stroke="#000000" points="399,-809 306,-809 306,-775 399,-775 399,-809"/>
<text text-anchor="middle" x="352.5" y="-795.4" font-family="Times,serif" font-size="12.00" fill="#000000">3.weight</text>
<text text-anchor="middle" x="352.5" y="-782.4" font-family="Times,serif" font-size="12.00" fill="#000000"> (224, 192, 4, 4)</text>
</g>
<!-- 140204153147176&#45;&gt;140204153146896 -->
<g id="edge18" class="edge">
<title>140204153147176&#45;&gt;140204153146896</title>
<path fill="none" stroke="#000000" d="M337.1742,-774.6966C327.9157,-764.2436 316.126,-750.9326 306.7123,-740.3042"/>
<polygon fill="#000000" stroke="#000000" points="309.3084,-737.9565 300.058,-732.7913 304.0683,-742.5978 309.3084,-737.9565"/>
</g>
<!-- 140204153146952 -->
<g id="node20" class="node">
<title>140204153146952</title>
<polygon fill="#add8e6" stroke="#000000" points="457.5,-739 399.5,-739 399.5,-705 457.5,-705 457.5,-739"/>
<text text-anchor="middle" x="428.5" y="-725.4" font-family="Times,serif" font-size="12.00" fill="#000000">4.weight</text>
<text text-anchor="middle" x="428.5" y="-712.4" font-family="Times,serif" font-size="12.00" fill="#000000"> (192)</text>
</g>
<!-- 140204153146952&#45;&gt;140204153146784 -->
<g id="edge19" class="edge">
<title>140204153146952&#45;&gt;140204153146784</title>
<path fill="none" stroke="#000000" d="M428.5,-704.9832C428.5,-697.1157 428.5,-687.6973 428.5,-679.4019"/>
<polygon fill="#000000" stroke="#000000" points="432.0001,-679.3686 428.5,-669.3687 425.0001,-679.3687 432.0001,-679.3686"/>
</g>
<!-- 140204153147008 -->
<g id="node21" class="node">
<title>140204153147008</title>
<polygon fill="#add8e6" stroke="#000000" points="529.5,-739 475.5,-739 475.5,-705 529.5,-705 529.5,-739"/>
<text text-anchor="middle" x="502.5" y="-725.4" font-family="Times,serif" font-size="12.00" fill="#000000">4.bias</text>
<text text-anchor="middle" x="502.5" y="-712.4" font-family="Times,serif" font-size="12.00" fill="#000000"> (192)</text>
</g>
<!-- 140204153147008&#45;&gt;140204153146784 -->
<g id="edge20" class="edge">
<title>140204153147008&#45;&gt;140204153146784</title>
<path fill="none" stroke="#000000" d="M482.6694,-704.9832C472.2647,-696.0549 459.5326,-685.1294 449.0269,-676.1143"/>
<polygon fill="#000000" stroke="#000000" points="451.0341,-673.2247 441.1659,-669.3687 446.4756,-678.537 451.0341,-673.2247"/>
</g>
<!-- 140204153146672 -->
<g id="node22" class="node">
<title>140204153146672</title>
<polygon fill="#add8e6" stroke="#000000" points="599,-612 506,-612 506,-578 599,-578 599,-612"/>
<text text-anchor="middle" x="552.5" y="-598.4" font-family="Times,serif" font-size="12.00" fill="#000000">6.weight</text>
<text text-anchor="middle" x="552.5" y="-585.4" font-family="Times,serif" font-size="12.00" fill="#000000"> (192, 128, 4, 4)</text>
</g>
<!-- 140204153146672&#45;&gt;140204153146392 -->
<g id="edge21" class="edge">
<title>140204153146672&#45;&gt;140204153146392</title>
<path fill="none" stroke="#000000" d="M537.1742,-577.6966C527.9157,-567.2436 516.126,-553.9326 506.7123,-543.3042"/>
<polygon fill="#000000" stroke="#000000" points="509.3084,-540.9565 500.058,-535.7913 504.0683,-545.5978 509.3084,-540.9565"/>
</g>
<!-- 140204153146448 -->
<g id="node23" class="node">
<title>140204153146448</title>
<polygon fill="#add8e6" stroke="#000000" points="657.5,-542 599.5,-542 599.5,-508 657.5,-508 657.5,-542"/>
<text text-anchor="middle" x="628.5" y="-528.4" font-family="Times,serif" font-size="12.00" fill="#000000">7.weight</text>
<text text-anchor="middle" x="628.5" y="-515.4" font-family="Times,serif" font-size="12.00" fill="#000000"> (128)</text>
</g>
<!-- 140204153146448&#45;&gt;140204153146280 -->
<g id="edge22" class="edge">
<title>140204153146448&#45;&gt;140204153146280</title>
<path fill="none" stroke="#000000" d="M628.5,-507.9832C628.5,-500.1157 628.5,-490.6973 628.5,-482.4019"/>
<polygon fill="#000000" stroke="#000000" points="632.0001,-482.3686 628.5,-472.3687 625.0001,-482.3687 632.0001,-482.3686"/>
</g>
<!-- 140204153146504 -->
<g id="node24" class="node">
<title>140204153146504</title>
<polygon fill="#add8e6" stroke="#000000" points="729.5,-542 675.5,-542 675.5,-508 729.5,-508 729.5,-542"/>
<text text-anchor="middle" x="702.5" y="-528.4" font-family="Times,serif" font-size="12.00" fill="#000000">7.bias</text>
<text text-anchor="middle" x="702.5" y="-515.4" font-family="Times,serif" font-size="12.00" fill="#000000"> (128)</text>
</g>
<!-- 140204153146504&#45;&gt;140204153146280 -->
<g id="edge23" class="edge">
<title>140204153146504&#45;&gt;140204153146280</title>
<path fill="none" stroke="#000000" d="M682.6694,-507.9832C672.2647,-499.0549 659.5326,-488.1294 649.0269,-479.1143"/>
<polygon fill="#000000" stroke="#000000" points="651.0341,-476.2247 641.1659,-472.3687 646.4756,-481.537 651.0341,-476.2247"/>
</g>
<!-- 140204153146168 -->
<g id="node25" class="node">
<title>140204153146168</title>
<polygon fill="#add8e6" stroke="#000000" points="793,-415 706,-415 706,-381 793,-381 793,-415"/>
<text text-anchor="middle" x="749.5" y="-401.4" font-family="Times,serif" font-size="12.00" fill="#000000">9.weight</text>
<text text-anchor="middle" x="749.5" y="-388.4" font-family="Times,serif" font-size="12.00" fill="#000000"> (128, 64, 4, 4)</text>
</g>
<!-- 140204153146168&#45;&gt;140204153145888 -->
<g id="edge24" class="edge">
<title>140204153146168&#45;&gt;140204153145888</title>
<path fill="none" stroke="#000000" d="M734.4213,-380.6966C725.4015,-370.346 713.9399,-357.1933 704.7239,-346.6176"/>
<polygon fill="#000000" stroke="#000000" points="707.1123,-344.0309 697.9038,-338.7913 701.8349,-348.6298 707.1123,-344.0309"/>
</g>
<!-- 140204153145944 -->
<g id="node26" class="node">
<title>140204153145944</title>
<polygon fill="#add8e6" stroke="#000000" points="861.5,-345 797.5,-345 797.5,-311 861.5,-311 861.5,-345"/>
<text text-anchor="middle" x="829.5" y="-331.4" font-family="Times,serif" font-size="12.00" fill="#000000">10.weight</text>
<text text-anchor="middle" x="829.5" y="-318.4" font-family="Times,serif" font-size="12.00" fill="#000000"> (64)</text>
</g>
<!-- 140204153145944&#45;&gt;140204153145776 -->
<g id="edge25" class="edge">
<title>140204153145944&#45;&gt;140204153145776</title>
<path fill="none" stroke="#000000" d="M829.5,-310.9832C829.5,-303.1157 829.5,-293.6973 829.5,-285.4019"/>
<polygon fill="#000000" stroke="#000000" points="833.0001,-285.3686 829.5,-275.3687 826.0001,-285.3687 833.0001,-285.3686"/>
</g>
<!-- 140204153146000 -->
<g id="node27" class="node">
<title>140204153146000</title>
<polygon fill="#add8e6" stroke="#000000" points="933.5,-345 879.5,-345 879.5,-311 933.5,-311 933.5,-345"/>
<text text-anchor="middle" x="906.5" y="-331.4" font-family="Times,serif" font-size="12.00" fill="#000000">10.bias</text>
<text text-anchor="middle" x="906.5" y="-318.4" font-family="Times,serif" font-size="12.00" fill="#000000"> (64)</text>
</g>
<!-- 140204153146000&#45;&gt;140204153145776 -->
<g id="edge26" class="edge">
<title>140204153146000&#45;&gt;140204153145776</title>
<path fill="none" stroke="#000000" d="M885.8654,-310.9832C874.9318,-301.9665 861.5281,-290.9128 850.5351,-281.8471"/>
<polygon fill="#000000" stroke="#000000" points="852.6211,-279.0308 842.6793,-275.3687 848.1675,-284.4313 852.6211,-279.0308"/>
</g>
<!-- 140204153145664 -->
<g id="node28" class="node">
<title>140204153145664</title>
<polygon fill="#add8e6" stroke="#000000" points="988,-218 907,-218 907,-184 988,-184 988,-218"/>
<text text-anchor="middle" x="947.5" y="-204.4" font-family="Times,serif" font-size="12.00" fill="#000000">12.weight</text>
<text text-anchor="middle" x="947.5" y="-191.4" font-family="Times,serif" font-size="12.00" fill="#000000"> (64, 37, 4, 4)</text>
</g>
<!-- 140204153145664&#45;&gt;140204153145160 -->
<g id="edge27" class="edge">
<title>140204153145664&#45;&gt;140204153145160</title>
<path fill="none" stroke="#000000" d="M932.9157,-183.6966C924.1917,-173.346 913.1058,-160.1933 904.192,-149.6176"/>
<polygon fill="#000000" stroke="#000000" points="906.7165,-147.1819 897.5955,-141.7913 901.364,-151.6932 906.7165,-147.1819"/>
</g>
<!-- 140204153144824 -->
<g id="node29" class="node">
<title>140204153144824</title>
<polygon fill="#add8e6" stroke="#000000" points="1061.5,-148 997.5,-148 997.5,-114 1061.5,-114 1061.5,-148"/>
<text text-anchor="middle" x="1029.5" y="-134.4" font-family="Times,serif" font-size="12.00" fill="#000000">13.weight</text>
<text text-anchor="middle" x="1029.5" y="-121.4" font-family="Times,serif" font-size="12.00" fill="#000000"> (37)</text>
</g>
<!-- 140204153144824&#45;&gt;140204153145608 -->
<g id="edge28" class="edge">
<title>140204153144824&#45;&gt;140204153145608</title>
<path fill="none" stroke="#000000" d="M1029.5,-113.9832C1029.5,-106.1157 1029.5,-96.6973 1029.5,-88.4019"/>
<polygon fill="#000000" stroke="#000000" points="1033.0001,-88.3686 1029.5,-78.3687 1026.0001,-88.3687 1033.0001,-88.3686"/>
</g>
<!-- 140204153145552 -->
<g id="node30" class="node">
<title>140204153145552</title>
<polygon fill="#add8e6" stroke="#000000" points="1133.5,-148 1079.5,-148 1079.5,-114 1133.5,-114 1133.5,-148"/>
<text text-anchor="middle" x="1106.5" y="-134.4" font-family="Times,serif" font-size="12.00" fill="#000000">13.bias</text>
<text text-anchor="middle" x="1106.5" y="-121.4" font-family="Times,serif" font-size="12.00" fill="#000000"> (37)</text>
</g>
<!-- 140204153145552&#45;&gt;140204153145608 -->
<g id="edge29" class="edge">
<title>140204153145552&#45;&gt;140204153145608</title>
<path fill="none" stroke="#000000" d="M1085.8654,-113.9832C1074.9318,-104.9665 1061.5281,-93.9128 1050.5351,-84.8471"/>
<polygon fill="#000000" stroke="#000000" points="1052.6211,-82.0308 1042.6793,-78.3687 1048.1675,-87.4313 1052.6211,-82.0308"/>
</g>
</g>
</svg>
