<?xml version="1.0" encoding="UTF-8" standalone="no"?>
<!DOCTYPE svg PUBLIC "-//W3C//DTD SVG 1.1//EN"
 "http://www.w3.org/Graphics/SVG/1.1/DTD/svg11.dtd">
<!-- Generated by graphviz version 2.40.1 (20161225.0304)
 -->
<!-- Title: %3 Pages: 1 -->
<svg width="154pt" height="226pt"
 viewBox="0.00 0.00 153.50 226.00" xmlns="http://www.w3.org/2000/svg" xmlns:xlink="http://www.w3.org/1999/xlink">
<g id="graph0" class="graph" transform="scale(1 1) rotate(0) translate(4 222)">
<title>%3</title>
<polygon fill="#ffffff" stroke="transparent" points="-4,4 -4,-222 149.5,-222 149.5,4 -4,4"/>
<!-- 140204153143928 -->
<g id="node1" class="node">
<title>140204153143928</title>
<polygon fill="#caff70" stroke="#000000" points="120.5,-21 15.5,-21 15.5,0 120.5,0 120.5,-21"/>
<text text-anchor="middle" x="68" y="-7.4" font-family="Times,serif" font-size="12.00" fill="#000000">SigmoidBackward</text>
</g>
<!-- 140204153143704 -->
<g id="node2" class="node">
<title>140204153143704</title>
<polygon fill="#d3d3d3" stroke="#000000" points="120,-78 16,-78 16,-57 120,-57 120,-78"/>
<text text-anchor="middle" x="68" y="-64.4" font-family="Times,serif" font-size="12.00" fill="#000000">AddmmBackward</text>
</g>
<!-- 140204153143704&#45;&gt;140204153143928 -->
<g id="edge1" class="edge">
<title>140204153143704&#45;&gt;140204153143928</title>
<path fill="none" stroke="#000000" d="M68,-56.7787C68,-49.6134 68,-39.9517 68,-31.3097"/>
<polygon fill="#000000" stroke="#000000" points="71.5001,-31.1732 68,-21.1732 64.5001,-31.1732 71.5001,-31.1732"/>
</g>
<!-- 140204153144992 -->
<g id="node3" class="node">
<title>140204153144992</title>
<polygon fill="#add8e6" stroke="#000000" points="54,-148 0,-148 0,-114 54,-114 54,-148"/>
<text text-anchor="middle" x="27" y="-134.4" font-family="Times,serif" font-size="12.00" fill="#000000">0.bias</text>
<text text-anchor="middle" x="27" y="-121.4" font-family="Times,serif" font-size="12.00" fill="#000000"> (4)</text>
</g>
<!-- 140204153144992&#45;&gt;140204153143704 -->
<g id="edge2" class="edge">
<title>140204153144992&#45;&gt;140204153143704</title>
<path fill="none" stroke="#000000" d="M37.9872,-113.9832C43.3524,-105.6737 49.8346,-95.6342 55.3998,-87.015"/>
<polygon fill="#000000" stroke="#000000" points="58.4985,-88.6682 60.9824,-78.3687 52.6177,-84.8712 58.4985,-88.6682"/>
</g>
<!-- 140204153144208 -->
<g id="node4" class="node">
<title>140204153144208</title>
<polygon fill="#d3d3d3" stroke="#000000" points="145.5,-141.5 72.5,-141.5 72.5,-120.5 145.5,-120.5 145.5,-141.5"/>
<text text-anchor="middle" x="109" y="-127.9" font-family="Times,serif" font-size="12.00" fill="#000000">TBackward</text>
</g>
<!-- 140204153144208&#45;&gt;140204153143704 -->
<g id="edge3" class="edge">
<title>140204153144208&#45;&gt;140204153143704</title>
<path fill="none" stroke="#000000" d="M102.0449,-120.2281C96.1191,-111.0503 87.4601,-97.6394 80.3579,-86.6396"/>
<polygon fill="#000000" stroke="#000000" points="83.2171,-84.6153 74.8524,-78.1128 77.3363,-88.4124 83.2171,-84.6153"/>
</g>
<!-- 140204153145104 -->
<g id="node5" class="node">
<title>140204153145104</title>
<polygon fill="#add8e6" stroke="#000000" points="138,-218 80,-218 80,-184 138,-184 138,-218"/>
<text text-anchor="middle" x="109" y="-204.4" font-family="Times,serif" font-size="12.00" fill="#000000">0.weight</text>
<text text-anchor="middle" x="109" y="-191.4" font-family="Times,serif" font-size="12.00" fill="#000000"> (4, 256)</text>
</g>
<!-- 140204153145104&#45;&gt;140204153144208 -->
<g id="edge4" class="edge">
<title>140204153145104&#45;&gt;140204153144208</title>
<path fill="none" stroke="#000000" d="M109,-183.6966C109,-174.0634 109,-162.003 109,-151.8518"/>
<polygon fill="#000000" stroke="#000000" points="112.5001,-151.7912 109,-141.7913 105.5001,-151.7913 112.5001,-151.7912"/>
</g>
</g>
</svg>
